|-----------------------------------------|
|     __      ___  __                     |
|     \ \    / | \/ /                     |
|      \ \/\/ / >  <                      |
|       \_/\_/ /_/\_\                     |
|                                         |
|    Shiro edition v2.0                   |
|    Spring-Boot-Version: ${spring-boot.version}           |
|                                         |
|-----------------------------------------|